…
```
## # A tibble: 75 x 4
## # Groups:   is [75]
##    is         data               ll.4.mod   ec50
##    <chr>      <list>             <list>    <dbl>
##  1 ILSO_5-41c <tibble [36 x 11]> <drc>    0.107 
##  2 ILSO_5-42c <tibble [36 x 11]> <drc>    0.249 
##  3 ILSO_5-49b <tibble [36 x 11]> <drc>    0.168 
##  4 ILSO_6-1   <tibble [36 x 11]> <drc>    0.108 
##  5 ILSO_6-12B <tibble [36 x 11]> <drc>    0.184 
##  6 ILSO_6-2b  <tibble [36 x 11]> <drc>    0.227 
##  7 ILSO_6-33C <tibble [36 x 11]> <drc>    0.102 
##  8 ILSO_6-39C <tibble [36 x 11]> <drc>    0.110 
##  9 ILSO_6-15b <tibble [36 x 11]> <drc>    0.123 
## 10 ILSO_6-28C <tibble [36 x 11]> <drc>    0.0999
## # i 65 more rows
```
